{
    "defaultSeverity": "error",
    "extends": [
        "tslint-config-airbnb"
    ],
    "rules": {
        "indent": [true, "spaces"],
        "ter-indent": [
            true,
            4,
            { "SwitchCase": 1 }
        ],
        "import-name": [
            true,
            { "lodash": "_" }
        ],
        "max-line-length": [
            true,
            {"limit": 140}
        ],
        "quotemark": [
          true,
          "single"
        ],
        "align": [
            false
        ],
        "radix": [
            false
        ],
        "object-shorthand-properties-first": [
            false
        ],
        "array-bracket-spacing": [ false ]
    },
    "rulesDirectory": []
}
